janthinaa.github.io - Olympic Swimming History 1912-2020
…
While the fastest timings have not decreased consistently in every Olympics (as seen in the example above), an overall outlook shows that swimming performance at the Olympics has improved over time.

Improvement: Men vs Women

`summarise()` has grouped output by 'Gender'. You can override using the
`.groups` argument.

Across events, we observe a larger absolute improvement in Women’s Swimming events.

[Am still working on how I should visualize this graph to show that the rate of improvement between men and women are different]

Owing to a greater rate of improvment in female swimmers, we can observe a diminishing difference between the results of female and male athletes in the 100m Freestyle event. While the 1952 difference between male and female gold medallists was 9.40 s, by 2008 it dropped to 5.91 s.

# A tibble: 28 × 13
# Groups:   Distance..in.meters., Stroke [8]
   Location  Year Distance..in.meters. Stroke Relay. Team  Athlete  Rank Country
   <chr>    <int> <chr>                <chr>   <int> <chr> <chr>   <int> <chr>  
 1 Beijing   2008 100m                 Frees…      0 FRA   Alain …     1 France 
 2 Beijing   2008 100m                 Frees…      0 FRA   Alain …     1 France 
 3 Beijing   2008 1500m                Frees…      0 TUN   Oussam…     1 Tunisia
 4 Beijing   2008 1500m                Frees…      0 TUN   Oussam…     1 Tunisia
 5 Beijing   2008 200m                 Frees…      0 USA   Michae…     1 United…
 6 Beijing   2008 200m                 Frees…      0 USA   Michae…     1 United…
 7 Beijing   2008 400m                 Frees…      0 KOR   Tae-Hw…     1 Korea,…
 8 Beijing   2008 400m                 Frees…      0 KOR   Tae-Hw…     1 Korea,…
 9 Beijing   2008 4x100                Frees…      1 USA   Nathan…     1 United…
10 Beijing   2008 4x100                Frees…      1 USA   Nathan…     1 United…
# ℹ 18 more rows
# ℹ 4 more variables: EventType <chr>, EventType2 <chr>, Gender <chr>,
#   Results <dbl>
…
